<?xml version="1.0" encoding="UTF-8"?>
<!DOCTYPE suite SYSTEM "https://testng.org/testng-1.0.dtd">
<suite name="Failed suite [Surefire suite]" verbose="0">
  <test thread-count="5" name="Surefire test(failed)" verbose="0">
    <classes>
      <class name="com.optiim.automation.TestScenario">
        <methods>
          <include name="testOpenMainPageAndVerify"/>
          <include name="testCheckPopupAddedFavorites"/>
          <include name="afterMethod"/>
          <include name="testLogin"/>
          <include name="testClickNextPageAndVerify"/>
          <include name="testClickAddBasketText"/>
          <include name="tearDown"/>
          <include name="testClickMyBasketButton"/>
          <include name="testSearchedTermVerify"/>
          <include name="testClickMobilePhoneCategory"/>
          <include name="setUp"/>
          <include name="testClosePopupAddBasket"/>
          <include name="testSearchAndVerify"/>
          <include name="testClickAddFavoritesButton"/>
          <include name="testProductVerify"/>
          <include name="testClickFiftyProduct"/>
          <include name="testClickMyAccountAndFavoriteProducts"/>
          <include name="testTrashBasketText"/>
          <include name="testIsEmptyBasket"/>
        </methods>
      </class> <!-- com.optiim.automation.TestScenario -->
    </classes>
  </test> <!-- Surefire test(failed) -->
</suite> <!-- Failed suite [Surefire suite] -->
